<?xml version="1.0" encoding="UTF-8"?>
<con:resource xmlns:xsi="http://www.w3.org/2001/XMLSchema-instance" xmlns:con="http://eviware.com/soapui/config" id="81e212ab-686f-4943-990c-0be1850d09f8" name="/albums" path="/albums">
  <con:settings id="d78b145b-07e3-417b-975b-226a5006e374">
    <con:setting id="81e212ab-686f-4943-990c-0be1850d09f8fileName">%2Falbums</con:setting>
  </con:settings>
  <con:parameters/>
  <con:method id="17f123cc-4a27-4b27-83cc-bf316ab3f87e" method="GET" name="get-multiple-albums">
    <con:description>Get Spotify catalog information for multiple albums identified by their Spotify IDs.</con:description>
    <con:settings/>
    <con:parameters>
      <con:parameter required="true">
        <con:name>ids</con:name>
        <con:style>QUERY</con:style>
      </con:parameter>
      <con:parameter>
        <con:name>market</con:name>
        <con:style>QUERY</con:style>
      </con:parameter>
    </con:parameters>
    <con:representation type="RESPONSE">
      <con:mediaType>application/json</con:mediaType>
      <con:status>200</con:status>
      <con:params/>
      <con:description>A set of albums</con:description>
      <con:sampleContent>{
  "albums" : [ {
    "album_type" : "compilation",
    "total_tracks" : 9,
    "available_markets" : [ "CA", "BR", "IT" ],
    "external_urls" : {
      "spotify" : "string"
    },
    "href" : "string",
    "id" : "2up3OPMp9Tb4dAKM2erWXQ",
    "images" : [ {
      "url" : "https://i.scdn.co/image/ab67616d00001e02ff9ca10b55ce82ae553c8228\n",
      "height" : 300,
      "width" : 300
    } ],
    "name" : "string",
    "release_date" : "1981-12",
    "release_date_precision" : "year",
    "restrictions" : {
      "reason" : "market"
    },
    "type" : "album",
    "uri" : "spotify:album:2up3OPMp9Tb4dAKM2erWXQ",
    "artists" : [ {
      "external_urls" : {
        "spotify" : "string"
      },
      "href" : "string",
      "id" : "string",
      "name" : "string",
      "type" : "artist",
      "uri" : "string"
    } ],
    "tracks" : {
      "href" : "https://api.spotify.com/v1/me/shows?offset=0&amp;limit=20\n",
      "items" : [ {
        "artists" : [ {
          "external_urls" : {
            "spotify" : "string"
          },
          "href" : "string",
          "id" : "string",
          "name" : "string",
          "type" : "artist",
          "uri" : "string"
        } ],
        "available_markets" : [ "string" ],
        "disc_number" : 0,
        "duration_ms" : 0,
        "explicit" : true,
        "external_urls" : {
          "spotify" : "string"
        },
        "href" : "string",
        "id" : "string",
        "is_playable" : true,
        "linked_from" : {
          "external_urls" : {
            "spotify" : "string"
          },
          "href" : "string",
          "id" : "string",
          "type" : "string",
          "uri" : "string"
        },
        "restrictions" : {
          "reason" : "string"
        },
        "name" : "string",
        "preview_url" : "string",
        "track_number" : 0,
        "type" : "string",
        "uri" : "string",
        "is_local" : true
      } ],
      "limit" : 20,
      "next" : "https://api.spotify.com/v1/me/shows?offset=1&amp;limit=1",
      "offset" : 0,
      "previous" : "https://api.spotify.com/v1/me/shows?offset=1&amp;limit=1",
      "total" : 4
    },
    "popularity" : 0,
    "label" : "string",
    "external_ids" : {
      "isrc" : "string",
      "ean" : "string",
      "upc" : "string"
    },
    "genres" : [ "string" ],
    "copyrights" : [ {
      "text" : "string",
      "type" : "string"
    } ]
  } ]
}</con:sampleContent>
    </con:representation>
    <con:representation type="RESPONSE">
      <con:mediaType>application/json</con:mediaType>
      <con:status>401</con:status>
      <con:params/>
      <con:description>Bad or expired token. This can happen if the user revoked a token or
the access token has expired. You should re-authenticate the user.</con:description>
      <con:sampleContent>{
  "error" : {
    "status" : 0,
    "message" : "string"
  }
}</con:sampleContent>
    </con:representation>
    <con:representation type="RESPONSE">
      <con:mediaType>application/json</con:mediaType>
      <con:status>403</con:status>
      <con:params/>
      <con:description>Bad OAuth request (wrong consumer key, bad nonce, expired
timestamp...). Unfortunately, re-authenticating the user won't help here.</con:description>
      <con:sampleContent>{
  "error" : {
    "status" : 0,
    "message" : "string"
  }
}</con:sampleContent>
    </con:representation>
    <con:representation type="RESPONSE">
      <con:mediaType>application/json</con:mediaType>
      <con:status>429</con:status>
      <con:params/>
      <con:description>The app has exceeded its rate limits.</con:description>
      <con:sampleContent>{
  "error" : {
    "status" : 0,
    "message" : "string"
  }
}</con:sampleContent>
    </con:representation>
    <con:request id="9ec3cea4-c1e9-45f1-ba97-6ed6a3cc5e00" mediaType="application/json" name="Request 1">
      <con:settings>
        <con:setting id="com.eviware.soapui.impl.wsdl.WsdlRequest@request-headers">&lt;xml-fragment/></con:setting>
      </con:settings>
      <con:endpoint>https://api.spotify.com/v1</con:endpoint>
      <con:request/>
      <con:originalUri>https://api.spotify.com/v1/albums</con:originalUri>
      <con:credentials>
        <con:selectedAuthProfile>New Spotify July 23</con:selectedAuthProfile>
        <con:authType>No Authorization</con:authType>
      </con:credentials>
      <con:jmsConfig JMSDeliveryMode="PERSISTENT"/>
      <con:parameters/>
      <con:environmentSpec>
        <con:entry environmentId="4f9a23ac-e2f5-4dd1-8154-c8a3bbf422dc">
          <con:authProfile>New Spotify July 23</con:authProfile>
        </con:entry>
      </con:environmentSpec>
    </con:request>
    <con:environmentSpec>
      <con:entry environmentId="Default"/>
      <con:entry environmentId="4f9a23ac-e2f5-4dd1-8154-c8a3bbf422dc">
        <con:authProfile>Inherit From Parent</con:authProfile>
      </con:entry>
    </con:environmentSpec>
  </con:method>
  <con:environmentSpec>
    <con:entry environmentId="Default"/>
    <con:entry environmentId="4f9a23ac-e2f5-4dd1-8154-c8a3bbf422dc">
      <con:authProfile>Inherit From Parent</con:authProfile>
    </con:entry>
  </con:environmentSpec>
</con:resource>
