<?xml version="1.0" encoding="UTF-8"?>
<con:resource name="/artists/{id}/albums" path="/artists/{id}/albums" id="b4ff6741-c2e5-434b-bb70-27da783e973b" xmlns:con="http://eviware.com/soapui/config">
  <con:settings>
    <con:setting id="b4ff6741-c2e5-434b-bb70-27da783e973bfileName">%2Fartists%2F%7Bid%7D%2Falbums</con:setting>
  </con:settings>
  <con:parameters/>
  <con:method name="get-an-artists-albums" id="e6c8a42f-0889-4c4a-a7bb-226fb5177097" method="GET">
    <con:description>Get Spotify catalog information about an artist's albums.</con:description>
    <con:settings/>
    <con:parameters>
      <con:parameter required="true">
        <con:name>id</con:name>
        <con:style>TEMPLATE</con:style>
      </con:parameter>
      <con:parameter>
        <con:name>include_groups</con:name>
        <con:style>QUERY</con:style>
      </con:parameter>
      <con:parameter>
        <con:name>market</con:name>
        <con:style>QUERY</con:style>
      </con:parameter>
      <con:parameter>
        <con:name>limit</con:name>
        <con:value>20</con:value>
        <con:style>QUERY</con:style>
        <con:default>20</con:default>
      </con:parameter>
      <con:parameter>
        <con:name>offset</con:name>
        <con:value>0</con:value>
        <con:style>QUERY</con:style>
        <con:default>0</con:default>
      </con:parameter>
    </con:parameters>
    <con:representation type="RESPONSE">
      <con:mediaType>application/json</con:mediaType>
      <con:status>200</con:status>
      <con:params/>
      <con:description>Pages of albums</con:description>
      <con:sampleContent>{
  "href" : "https://api.spotify.com/v1/me/shows?offset=0&amp;limit=20\n",
  "items" : [ {
    "album_type" : "compilation",
    "total_tracks" : 9,
    "available_markets" : [ "CA", "BR", "IT" ],
    "external_urls" : {
      "spotify" : "string"
    },
    "href" : "string",
    "id" : "2up3OPMp9Tb4dAKM2erWXQ",
    "images" : [ {
      "url" : "https://i.scdn.co/image/ab67616d00001e02ff9ca10b55ce82ae553c8228\n",
      "height" : 300,
      "width" : 300
    } ],
    "name" : "string",
    "release_date" : "1981-12",
    "release_date_precision" : "year",
    "restrictions" : {
      "reason" : "market"
    },
    "type" : "album",
    "uri" : "spotify:album:2up3OPMp9Tb4dAKM2erWXQ",
    "album_group" : "compilation",
    "artists" : [ {
      "external_urls" : {
        "spotify" : "string"
      },
      "href" : "string",
      "id" : "string",
      "name" : "string",
      "type" : "artist",
      "uri" : "string"
    } ]
  } ],
  "limit" : 20,
  "next" : "https://api.spotify.com/v1/me/shows?offset=1&amp;limit=1",
  "offset" : 0,
  "previous" : "https://api.spotify.com/v1/me/shows?offset=1&amp;limit=1",
  "total" : 4
}</con:sampleContent>
    </con:representation>
    <con:representation type="RESPONSE">
      <con:mediaType>application/json</con:mediaType>
      <con:status>401</con:status>
      <con:params/>
      <con:description>Bad or expired token. This can happen if the user revoked a token or
the access token has expired. You should re-authenticate the user.</con:description>
      <con:sampleContent>{
  "error" : {
    "status" : 0,
    "message" : "string"
  }
}</con:sampleContent>
    </con:representation>
    <con:representation type="RESPONSE">
      <con:mediaType>application/json</con:mediaType>
      <con:status>403</con:status>
      <con:params/>
      <con:description>Bad OAuth request (wrong consumer key, bad nonce, expired
timestamp...). Unfortunately, re-authenticating the user won't help here.</con:description>
      <con:sampleContent>{
  "error" : {
    "status" : 0,
    "message" : "string"
  }
}</con:sampleContent>
    </con:representation>
    <con:representation type="RESPONSE">
      <con:mediaType>application/json</con:mediaType>
      <con:status>429</con:status>
      <con:params/>
      <con:description>The app has exceeded its rate limits.</con:description>
      <con:sampleContent>{
  "error" : {
    "status" : 0,
    "message" : "string"
  }
}</con:sampleContent>
    </con:representation>
    <con:request name="Request 1" id="b32d8304-8487-47af-8f0f-89304c51ad69" mediaType="application/json">
      <con:settings/>
      <con:endpoint>https://api.spotify.com/v1</con:endpoint>
      <con:parameters/>
    </con:request>
  </con:method>
</con:resource>
