<?xml version="1.0" encoding="UTF-8"?>
<con:resource xmlns:xsi="http://www.w3.org/2001/XMLSchema-instance" xmlns:con="http://eviware.com/soapui/config" id="d0cf35f0-3e73-4342-a1e4-f70affeee714" name="/browse/categories/{category_id}/playlists" path="/browse/categories/{category_id}/playlists">
  <con:settings id="fc46eec2-de06-4a24-83e9-8d0220338b6b">
    <con:setting id="d0cf35f0-3e73-4342-a1e4-f70affeee714fileName">%2Fbrowse%2Fcategories%2F%7Bcategory_id%7D%2Fplaylists</con:setting>
  </con:settings>
  <con:parameters/>
  <con:method id="e5bdfae1-c46f-414a-bf4c-cfc663dbddfa" method="GET" name="get-a-categories-playlists">
    <con:description>Get a list of Spotify playlists tagged with a particular category.</con:description>
    <con:settings/>
    <con:parameters>
      <con:parameter required="true">
        <con:name>category_id</con:name>
        <con:style>TEMPLATE</con:style>
      </con:parameter>
      <con:parameter>
        <con:name>country</con:name>
        <con:style>QUERY</con:style>
      </con:parameter>
      <con:parameter>
        <con:name>limit</con:name>
        <con:value>20</con:value>
        <con:style>QUERY</con:style>
        <con:default>20</con:default>
      </con:parameter>
      <con:parameter>
        <con:name>offset</con:name>
        <con:value>0</con:value>
        <con:style>QUERY</con:style>
        <con:default>0</con:default>
      </con:parameter>
    </con:parameters>
    <con:representation type="RESPONSE">
      <con:mediaType>application/json</con:mediaType>
      <con:status>200</con:status>
      <con:params/>
      <con:description>A paged set of playlists</con:description>
      <con:sampleContent>{
  "playlists" : {
    "href" : "https://api.spotify.com/v1/me/shows?offset=0&amp;limit=20\n",
    "items" : [ {
      "collaborative" : true,
      "description" : "string",
      "external_urls" : {
        "spotify" : "string"
      },
      "href" : "string",
      "id" : "string",
      "images" : [ {
        "url" : "https://i.scdn.co/image/ab67616d00001e02ff9ca10b55ce82ae553c8228\n",
        "height" : 300,
        "width" : 300
      } ],
      "name" : "string",
      "owner" : {
        "external_urls" : {
          "spotify" : "string"
        },
        "followers" : {
          "href" : "string",
          "total" : 0
        },
        "href" : "string",
        "id" : "string",
        "type" : "user",
        "uri" : "string",
        "display_name" : "string"
      },
      "public" : true,
      "snapshot_id" : "string",
      "tracks" : {
        "href" : "string",
        "total" : 0
      },
      "type" : "string",
      "uri" : "string"
    } ],
    "limit" : 20,
    "next" : "https://api.spotify.com/v1/me/shows?offset=1&amp;limit=1",
    "offset" : 0,
    "previous" : "https://api.spotify.com/v1/me/shows?offset=1&amp;limit=1",
    "total" : 4
  }
}</con:sampleContent>
    </con:representation>
    <con:representation type="RESPONSE">
      <con:mediaType>application/json</con:mediaType>
      <con:status>401</con:status>
      <con:params/>
      <con:description>Bad or expired token. This can happen if the user revoked a token or
the access token has expired. You should re-authenticate the user.</con:description>
      <con:sampleContent>{
  "error" : {
    "status" : 0,
    "message" : "string"
  }
}</con:sampleContent>
    </con:representation>
    <con:representation type="RESPONSE">
      <con:mediaType>application/json</con:mediaType>
      <con:status>403</con:status>
      <con:params/>
      <con:description>Bad OAuth request (wrong consumer key, bad nonce, expired
timestamp...). Unfortunately, re-authenticating the user won't help here.</con:description>
      <con:sampleContent>{
  "error" : {
    "status" : 0,
    "message" : "string"
  }
}</con:sampleContent>
    </con:representation>
    <con:representation type="RESPONSE">
      <con:mediaType>application/json</con:mediaType>
      <con:status>429</con:status>
      <con:params/>
      <con:description>The app has exceeded its rate limits.</con:description>
      <con:sampleContent>{
  "error" : {
    "status" : 0,
    "message" : "string"
  }
}</con:sampleContent>
    </con:representation>
    <con:request id="04114643-7a4f-443e-9129-1c196cd784c2" mediaType="application/json" name="Request 1">
      <con:settings/>
      <con:endpoint>https://api.spotify.com/v1</con:endpoint>
      <con:request/>
      <con:credentials>
        <con:selectedAuthProfile>Inherit From Parent</con:selectedAuthProfile>
        <con:authType>No Authorization</con:authType>
      </con:credentials>
      <con:jmsConfig JMSDeliveryMode="PERSISTENT"/>
      <con:parameters/>
      <con:environmentSpec>
        <con:entry environmentId="4f9a23ac-e2f5-4dd1-8154-c8a3bbf422dc">
          <con:authProfile>New Spotify July 23</con:authProfile>
        </con:entry>
      </con:environmentSpec>
    </con:request>
    <con:environmentSpec>
      <con:entry environmentId="4f9a23ac-e2f5-4dd1-8154-c8a3bbf422dc">
        <con:authProfile>Inherit From Parent</con:authProfile>
      </con:entry>
    </con:environmentSpec>
  </con:method>
  <con:environmentSpec>
    <con:entry environmentId="4f9a23ac-e2f5-4dd1-8154-c8a3bbf422dc">
      <con:authProfile>Inherit From Parent</con:authProfile>
    </con:entry>
  </con:environmentSpec>
</con:resource>
