<?xml version="1.0" encoding="UTF-8"?>
<con:resource xmlns:con="http://eviware.com/soapui/config" id="c1eb9b8e-0450-40d4-a0e0-fb141555d79e" name="/shows/{id}" path="/shows/{id}">
  <con:settings id="eee68712-fa44-4658-b96f-71510c3db7ee">
    <con:setting id="c1eb9b8e-0450-40d4-a0e0-fb141555d79efileName">%2Fshows%2F%7Bid%7D</con:setting>
  </con:settings>
  <con:parameters/>
  <con:method id="46ad02b7-4e49-46ed-8026-afd7eab7c268" method="GET" name="get-a-show">
    <con:description>Get Spotify catalog information for a single show identified by its
unique Spotify ID.</con:description>
    <con:settings/>
    <con:parameters>
      <con:parameter>
        <con:name>market</con:name>
        <con:style>QUERY</con:style>
      </con:parameter>
      <con:parameter required="true">
        <con:name>id</con:name>
        <con:style>TEMPLATE</con:style>
      </con:parameter>
    </con:parameters>
    <con:representation type="RESPONSE">
      <con:mediaType>application/json</con:mediaType>
      <con:status>200</con:status>
      <con:params/>
      <con:description>A show</con:description>
      <con:sampleContent>{
  "available_markets" : [ "string" ],
  "copyrights" : [ {
    "text" : "string",
    "type" : "string"
  } ],
  "description" : "string",
  "html_description" : "string",
  "explicit" : true,
  "external_urls" : {
    "spotify" : "string"
  },
  "href" : "string",
  "id" : "string",
  "images" : [ {
    "url" : "https://i.scdn.co/image/ab67616d00001e02ff9ca10b55ce82ae553c8228\n",
    "height" : 300,
    "width" : 300
  } ],
  "is_externally_hosted" : true,
  "languages" : [ "string" ],
  "media_type" : "string",
  "name" : "string",
  "publisher" : "string",
  "type" : "show",
  "uri" : "string",
  "episodes" : {
    "href" : "https://api.spotify.com/v1/me/shows?offset=0&amp;limit=20\n",
    "items" : [ {
      "audio_preview_url" : "https://p.scdn.co/mp3-preview/2f37da1d4221f40b9d1a98cd191f4d6f1646ad17",
      "description" : "A Spotify podcast sharing fresh insights on important topics of the moment—in a way only Spotify can. You’ll hear from experts in the music, podcast and tech industries as we discover and uncover stories about our work and the world around us.\n",
      "html_description" : "&lt;p>A Spotify podcast sharing fresh insights on important topics of the moment—in a way only Spotify can. You’ll hear from experts in the music, podcast and tech industries as we discover and uncover stories about our work and the world around us.&lt;/p>\n",
      "duration_ms" : 1686230,
      "explicit" : true,
      "external_urls" : {
        "spotify" : "string"
      },
      "href" : "https://api.spotify.com/v1/episodes/5Xt5DXGzch68nYYamXrNxZ",
      "id" : "5Xt5DXGzch68nYYamXrNxZ",
      "images" : [ {
        "url" : "https://i.scdn.co/image/ab67616d00001e02ff9ca10b55ce82ae553c8228\n",
        "height" : 300,
        "width" : 300
      } ],
      "is_externally_hosted" : true,
      "is_playable" : true,
      "language" : "en",
      "languages" : [ "fr", "en" ],
      "name" : "Starting Your Own Podcast: Tips, Tricks, and Advice From Anchor Creators\n",
      "release_date" : "1981-12-15",
      "release_date_precision" : "day",
      "resume_point" : {
        "fully_played" : true,
        "resume_position_ms" : 0
      },
      "type" : "episode",
      "uri" : "spotify:episode:0zLhl3WsOCQHbe1BPTiHgr",
      "restrictions" : {
        "reason" : "string"
      }
    } ],
    "limit" : 20,
    "next" : "https://api.spotify.com/v1/me/shows?offset=1&amp;limit=1",
    "offset" : 0,
    "previous" : "https://api.spotify.com/v1/me/shows?offset=1&amp;limit=1",
    "total" : 4
  }
}</con:sampleContent>
    </con:representation>
    <con:representation type="RESPONSE">
      <con:mediaType>application/json</con:mediaType>
      <con:status>401</con:status>
      <con:params/>
      <con:description>Bad or expired token. This can happen if the user revoked a token or
the access token has expired. You should re-authenticate the user.</con:description>
      <con:sampleContent>{
  "error" : {
    "status" : 0,
    "message" : "string"
  }
}</con:sampleContent>
    </con:representation>
    <con:representation type="RESPONSE">
      <con:mediaType>application/json</con:mediaType>
      <con:status>403</con:status>
      <con:params/>
      <con:description>Bad OAuth request (wrong consumer key, bad nonce, expired
timestamp...). Unfortunately, re-authenticating the user won't help here.</con:description>
      <con:sampleContent>{
  "error" : {
    "status" : 0,
    "message" : "string"
  }
}</con:sampleContent>
    </con:representation>
    <con:representation type="RESPONSE">
      <con:mediaType>application/json</con:mediaType>
      <con:status>429</con:status>
      <con:params/>
      <con:description>The app has exceeded its rate limits.</con:description>
      <con:sampleContent>{
  "error" : {
    "status" : 0,
    "message" : "string"
  }
}</con:sampleContent>
    </con:representation>
    <con:request id="e51c94f8-8666-45c2-821e-a1b9c5e76d0c" mediaType="application/json" name="Request 1">
      <con:settings/>
      <con:endpoint>https://api.spotify.com/v1</con:endpoint>
      <con:request/>
      <con:credentials>
        <con:selectedAuthProfile>Inherit From Parent</con:selectedAuthProfile>
        <con:authType>No Authorization</con:authType>
      </con:credentials>
      <con:jmsConfig JMSDeliveryMode="PERSISTENT"/>
      <con:parameters/>
    </con:request>
  </con:method>
</con:resource>
