<?xml version="1.0" encoding="UTF-8"?>
<con:resource name="/search" path="/search" id="f350521f-42c1-417e-96ff-30181d84a23c" xmlns:con="http://eviware.com/soapui/config">
  <con:settings>
    <con:setting id="f350521f-42c1-417e-96ff-30181d84a23cfileName">%2Fsearch</con:setting>
  </con:settings>
  <con:parameters/>
  <con:method name="search" id="ef50fc19-f77c-4b3e-b9bc-ebf7fbbe7e5d" method="GET">
    <con:description>Get Spotify catalog information about albums, artists, playlists, tracks, shows or episodes
that match a keyword string.</con:description>
    <con:settings/>
    <con:parameters>
      <con:parameter required="true">
        <con:name>q</con:name>
        <con:style>QUERY</con:style>
      </con:parameter>
      <con:parameter required="true">
        <con:name>type</con:name>
        <con:style>QUERY</con:style>
      </con:parameter>
      <con:parameter>
        <con:name>market</con:name>
        <con:style>QUERY</con:style>
      </con:parameter>
      <con:parameter>
        <con:name>limit</con:name>
        <con:value>20</con:value>
        <con:style>QUERY</con:style>
        <con:default>20</con:default>
      </con:parameter>
      <con:parameter>
        <con:name>offset</con:name>
        <con:value>0</con:value>
        <con:style>QUERY</con:style>
        <con:default>0</con:default>
      </con:parameter>
      <con:parameter>
        <con:name>include_external</con:name>
        <con:style>QUERY</con:style>
      </con:parameter>
    </con:parameters>
    <con:representation type="RESPONSE">
      <con:mediaType>application/json</con:mediaType>
      <con:status>200</con:status>
      <con:params/>
      <con:description>Search response</con:description>
      <con:sampleContent><![CDATA[{
  "tracks" : {
    "href" : "https://api.spotify.com/v1/me/shows?offset=0&limit=20\n",
    "items" : [ {
      "artists" : [ {
        "external_urls" : {
          "spotify" : "string"
        },
        "href" : "string",
        "id" : "string",
        "name" : "string",
        "type" : "artist",
        "uri" : "string"
      } ],
      "available_markets" : [ "string" ],
      "disc_number" : 0,
      "duration_ms" : 0,
      "explicit" : true,
      "external_urls" : {
        "spotify" : "string"
      },
      "href" : "string",
      "id" : "string",
      "is_playable" : true,
      "linked_from" : {
        "external_urls" : {
          "spotify" : "string"
        },
        "href" : "string",
        "id" : "string",
        "type" : "string",
        "uri" : "string"
      },
      "restrictions" : {
        "reason" : "string"
      },
      "name" : "string",
      "preview_url" : "string",
      "track_number" : 0,
      "type" : "string",
      "uri" : "string",
      "is_local" : true
    } ],
    "limit" : 20,
    "next" : "https://api.spotify.com/v1/me/shows?offset=1&limit=1",
    "offset" : 0,
    "previous" : "https://api.spotify.com/v1/me/shows?offset=1&limit=1",
    "total" : 4
  },
  "artists" : {
    "href" : "https://api.spotify.com/v1/me/shows?offset=0&limit=20\n",
    "items" : [ {
      "external_urls" : {
        "spotify" : "string"
      },
      "href" : "string",
      "id" : "string",
      "name" : "string",
      "type" : "artist",
      "uri" : "string"
    } ],
    "limit" : 20,
    "next" : "https://api.spotify.com/v1/me/shows?offset=1&limit=1",
    "offset" : 0,
    "previous" : "https://api.spotify.com/v1/me/shows?offset=1&limit=1",
    "total" : 4
  },
  "albums" : {
    "href" : "https://api.spotify.com/v1/me/shows?offset=0&limit=20\n",
    "items" : [ {
      "album_type" : "compilation",
      "total_tracks" : 9,
      "available_markets" : [ "CA", "BR", "IT" ],
      "external_urls" : {
        "spotify" : "string"
      },
      "href" : "string",
      "id" : "2up3OPMp9Tb4dAKM2erWXQ",
      "images" : [ {
        "url" : "https://i.scdn.co/image/ab67616d00001e02ff9ca10b55ce82ae553c8228\n",
        "height" : 300,
        "width" : 300
      } ],
      "name" : "string",
      "release_date" : "1981-12",
      "release_date_precision" : "year",
      "restrictions" : {
        "reason" : "market"
      },
      "type" : "album",
      "uri" : "spotify:album:2up3OPMp9Tb4dAKM2erWXQ",
      "album_group" : "compilation",
      "artists" : [ {
        "external_urls" : {
          "spotify" : "string"
        },
        "href" : "string",
        "id" : "string",
        "name" : "string",
        "type" : "artist",
        "uri" : "string"
      } ]
    } ],
    "limit" : 20,
    "next" : "https://api.spotify.com/v1/me/shows?offset=1&limit=1",
    "offset" : 0,
    "previous" : "https://api.spotify.com/v1/me/shows?offset=1&limit=1",
    "total" : 4
  },
  "playlists" : {
    "href" : "https://api.spotify.com/v1/me/shows?offset=0&limit=20\n",
    "items" : [ {
      "collaborative" : true,
      "description" : "string",
      "external_urls" : {
        "spotify" : "string"
      },
      "href" : "string",
      "id" : "string",
      "images" : [ {
        "url" : "https://i.scdn.co/image/ab67616d00001e02ff9ca10b55ce82ae553c8228\n",
        "height" : 300,
        "width" : 300
      } ],
      "name" : "string",
      "owner" : {
        "external_urls" : {
          "spotify" : "string"
        },
        "followers" : {
          "href" : "string",
          "total" : 0
        },
        "href" : "string",
        "id" : "string",
        "type" : "user",
        "uri" : "string",
        "display_name" : "string"
      },
      "public" : true,
      "snapshot_id" : "string",
      "tracks" : {
        "href" : "string",
        "total" : 0
      },
      "type" : "string",
      "uri" : "string"
    } ],
    "limit" : 20,
    "next" : "https://api.spotify.com/v1/me/shows?offset=1&limit=1",
    "offset" : 0,
    "previous" : "https://api.spotify.com/v1/me/shows?offset=1&limit=1",
    "total" : 4
  },
  "shows" : {
    "href" : "https://api.spotify.com/v1/me/shows?offset=0&limit=20\n",
    "items" : [ {
      "available_markets" : [ "string" ],
      "copyrights" : [ {
        "text" : "string",
        "type" : "string"
      } ],
      "description" : "string",
      "html_description" : "string",
      "explicit" : true,
      "external_urls" : {
        "spotify" : "string"
      },
      "href" : "string",
      "id" : "string",
      "images" : [ {
        "url" : "https://i.scdn.co/image/ab67616d00001e02ff9ca10b55ce82ae553c8228\n",
        "height" : 300,
        "width" : 300
      } ],
      "is_externally_hosted" : true,
      "languages" : [ "string" ],
      "media_type" : "string",
      "name" : "string",
      "publisher" : "string",
      "type" : "show",
      "uri" : "string"
    } ],
    "limit" : 20,
    "next" : "https://api.spotify.com/v1/me/shows?offset=1&limit=1",
    "offset" : 0,
    "previous" : "https://api.spotify.com/v1/me/shows?offset=1&limit=1",
    "total" : 4
  },
  "episodes" : {
    "href" : "https://api.spotify.com/v1/me/shows?offset=0&limit=20\n",
    "items" : [ {
      "audio_preview_url" : "https://p.scdn.co/mp3-preview/2f37da1d4221f40b9d1a98cd191f4d6f1646ad17",
      "description" : "A Spotify podcast sharing fresh insights on important topics of the moment—in a way only Spotify can. You’ll hear from experts in the music, podcast and tech industries as we discover and uncover stories about our work and the world around us.\n",
      "html_description" : "<p>A Spotify podcast sharing fresh insights on important topics of the moment—in a way only Spotify can. You’ll hear from experts in the music, podcast and tech industries as we discover and uncover stories about our work and the world around us.</p>\n",
      "duration_ms" : 1686230,
      "explicit" : true,
      "external_urls" : {
        "spotify" : "string"
      },
      "href" : "https://api.spotify.com/v1/episodes/5Xt5DXGzch68nYYamXrNxZ",
      "id" : "5Xt5DXGzch68nYYamXrNxZ",
      "images" : [ {
        "url" : "https://i.scdn.co/image/ab67616d00001e02ff9ca10b55ce82ae553c8228\n",
        "height" : 300,
        "width" : 300
      } ],
      "is_externally_hosted" : true,
      "is_playable" : true,
      "language" : "en",
      "languages" : [ "fr", "en" ],
      "name" : "Starting Your Own Podcast: Tips, Tricks, and Advice From Anchor Creators\n",
      "release_date" : "1981-12-15",
      "release_date_precision" : "day",
      "resume_point" : {
        "fully_played" : true,
        "resume_position_ms" : 0
      },
      "type" : "episode",
      "uri" : "spotify:episode:0zLhl3WsOCQHbe1BPTiHgr",
      "restrictions" : {
        "reason" : "string"
      }
    } ],
    "limit" : 20,
    "next" : "https://api.spotify.com/v1/me/shows?offset=1&limit=1",
    "offset" : 0,
    "previous" : "https://api.spotify.com/v1/me/shows?offset=1&limit=1",
    "total" : 4
  }
}]]></con:sampleContent>
    </con:representation>
    <con:representation type="RESPONSE">
      <con:mediaType>application/json</con:mediaType>
      <con:status>401</con:status>
      <con:params/>
      <con:description>Bad or expired token. This can happen if the user revoked a token or
the access token has expired. You should re-authenticate the user.</con:description>
      <con:sampleContent>{
  "error" : {
    "status" : 0,
    "message" : "string"
  }
}</con:sampleContent>
    </con:representation>
    <con:representation type="RESPONSE">
      <con:mediaType>application/json</con:mediaType>
      <con:status>403</con:status>
      <con:params/>
      <con:description>Bad OAuth request (wrong consumer key, bad nonce, expired
timestamp...). Unfortunately, re-authenticating the user won't help here.</con:description>
      <con:sampleContent>{
  "error" : {
    "status" : 0,
    "message" : "string"
  }
}</con:sampleContent>
    </con:representation>
    <con:representation type="RESPONSE">
      <con:mediaType>application/json</con:mediaType>
      <con:status>429</con:status>
      <con:params/>
      <con:description>The app has exceeded its rate limits.</con:description>
      <con:sampleContent>{
  "error" : {
    "status" : 0,
    "message" : "string"
  }
}</con:sampleContent>
    </con:representation>
    <con:request name="Request 1" id="a5a95ac6-6fe3-4e53-8998-0f3cfca9e2c8" mediaType="application/json">
      <con:settings/>
      <con:endpoint>https://api.spotify.com/v1</con:endpoint>
      <con:credentials/>
      <con:parameters/>
    </con:request>
  </con:method>
</con:resource>
