<?xml version="1.0" encoding="UTF-8"?>
<con:restMockAction xmlns:con="http://eviware.com/soapui/config" name="/artists/{id}/albums" method="GET" resourcePath="/artists/{id}/albums" id="046cc03e-e7ed-4e3b-b4fe-f58d407af01d">
  <con:settings id="3742bed5-3421-448a-83f8-8ec03ef828c6">
    <con:setting id="046cc03e-e7ed-4e3b-b4fe-f58d407af01dfileName">%2Fartists%2F%7Bid%7D%2Falbums</con:setting>
  </con:settings>
  <con:dispatchStyle>SEQUENCE</con:dispatchStyle>
  <con:dispatchConfig/>
  <con:dispatchXPath/>
  <con:routeScript/>
  <con:response name="Response 1" id="aa153280-e9ff-428d-8a73-df426c761082" httpResponseStatus="200" mediaType="application/json" compressedBodyContent="aced00057372002f636f6d2e657669776172652e736f617075692e696d706c2e737570706f72742e436f6d7072657373656456616c7565000b8b02c748eeab0200035a000a636f6d707265737365644c000b636f6d7072657373696f6e74003d4c636f6d2f657669776172652f736f617075692f696d706c2f737570706f72742f436f6d7072657373656456616c756524436f6d7072657373696f6e3b5b0004646174617400025b427870007e72003b636f6d2e657669776172652e736f617075692e696d706c2e737570706f72742e436f6d7072657373656456616c756524436f6d7072657373696f6e00000000000000001200007872000e6a6176612e6c616e672e456e756d000000000000000012000078707400044e4f4e4570" dataSource="">
    <con:settings/>
    <con:responseContent>{
  "href" : "https://api.spotify.com/v1/me/shows?offset=0&amp;limit=20\n",
  "items" : [ {
    "album_type" : "compilation",
    "total_tracks" : 9,
    "available_markets" : [ "CA", "BR", "IT" ],
    "external_urls" : {
      "spotify" : "string"
    },
    "href" : "string",
    "id" : "2up3OPMp9Tb4dAKM2erWXQ",
    "images" : [ {
      "url" : "https://i.scdn.co/image/ab67616d00001e02ff9ca10b55ce82ae553c8228\n",
      "height" : 300,
      "width" : 300
    } ],
    "name" : "string",
    "release_date" : "1981-12",
    "release_date_precision" : "year",
    "restrictions" : {
      "reason" : "market"
    },
    "type" : "album",
    "uri" : "spotify:album:2up3OPMp9Tb4dAKM2erWXQ",
    "album_group" : "compilation",
    "artists" : [ {
      "external_urls" : {
        "spotify" : "string"
      },
      "href" : "string",
      "id" : "string",
      "name" : "string",
      "type" : "artist",
      "uri" : "string"
    } ]
  } ],
  "limit" : 20,
  "next" : "https://api.spotify.com/v1/me/shows?offset=1&amp;limit=1",
  "offset" : 0,
  "previous" : "https://api.spotify.com/v1/me/shows?offset=1&amp;limit=1",
  "total" : 4
}</con:responseContent>
  </con:response>
  <con:response name="Response 2" id="853ef3ac-049b-4213-b100-3a2758e41dc8" httpResponseStatus="401" mediaType="application/json" compressedBodyContent="aced00057372002f636f6d2e657669776172652e736f617075692e696d706c2e737570706f72742e436f6d7072657373656456616c7565000b8b02c748eeab0200035a000a636f6d707265737365644c000b636f6d7072657373696f6e74003d4c636f6d2f657669776172652f736f617075692f696d706c2f737570706f72742f436f6d7072657373656456616c756524436f6d7072657373696f6e3b5b0004646174617400025b427870007e72003b636f6d2e657669776172652e736f617075692e696d706c2e737570706f72742e436f6d7072657373656456616c756524436f6d7072657373696f6e00000000000000001200007872000e6a6176612e6c616e672e456e756d000000000000000012000078707400044e4f4e4570" dataSource="">
    <con:settings/>
    <con:responseContent>{
  "error" : {
    "status" : 0,
    "message" : "string"
  }
}</con:responseContent>
  </con:response>
  <con:response name="Response 3" id="eeb9af88-8a34-4216-b050-3c400d389324" httpResponseStatus="403" mediaType="application/json" compressedBodyContent="aced00057372002f636f6d2e657669776172652e736f617075692e696d706c2e737570706f72742e436f6d7072657373656456616c7565000b8b02c748eeab0200035a000a636f6d707265737365644c000b636f6d7072657373696f6e74003d4c636f6d2f657669776172652f736f617075692f696d706c2f737570706f72742f436f6d7072657373656456616c756524436f6d7072657373696f6e3b5b0004646174617400025b427870007e72003b636f6d2e657669776172652e736f617075692e696d706c2e737570706f72742e436f6d7072657373656456616c756524436f6d7072657373696f6e00000000000000001200007872000e6a6176612e6c616e672e456e756d000000000000000012000078707400044e4f4e4570" dataSource="">
    <con:settings/>
    <con:responseContent>{
  "error" : {
    "status" : 0,
    "message" : "string"
  }
}</con:responseContent>
  </con:response>
  <con:response name="Response 4" id="8894b0fc-ef75-4850-a2c9-bfe7890cae7e" httpResponseStatus="429" mediaType="application/json" compressedBodyContent="aced00057372002f636f6d2e657669776172652e736f617075692e696d706c2e737570706f72742e436f6d7072657373656456616c7565000b8b02c748eeab0200035a000a636f6d707265737365644c000b636f6d7072657373696f6e74003d4c636f6d2f657669776172652f736f617075692f696d706c2f737570706f72742f436f6d7072657373656456616c756524436f6d7072657373696f6e3b5b0004646174617400025b427870007e72003b636f6d2e657669776172652e736f617075692e696d706c2e737570706f72742e436f6d7072657373656456616c756524436f6d7072657373696f6e00000000000000001200007872000e6a6176612e6c616e672e456e756d000000000000000012000078707400044e4f4e4570" dataSource="">
    <con:settings/>
    <con:responseContent>{
  "error" : {
    "status" : 0,
    "message" : "string"
  }
}</con:responseContent>
  </con:response>
</con:restMockAction>
