<?xml version="1.0" encoding="UTF-8"?>
<con:restMockAction xmlns:con="http://eviware.com/soapui/config" name="/browse/categories" method="GET" resourcePath="/browse/categories" id="6e82342b-0df3-43fe-835c-551a24d3074f">
  <con:settings id="f8673ab6-7f8f-4dda-a01a-071ed8ed8cb4">
    <con:setting id="6e82342b-0df3-43fe-835c-551a24d3074ffileName">%2Fbrowse%2Fcategories</con:setting>
  </con:settings>
  <con:dispatchStyle>SEQUENCE</con:dispatchStyle>
  <con:dispatchConfig/>
  <con:dispatchXPath/>
  <con:routeScript/>
  <con:response name="Response 1" id="b4a865e6-980a-44d6-89d0-5660b20be9cd" httpResponseStatus="200" mediaType="application/json" compressedBodyContent="aced00057372002f636f6d2e657669776172652e736f617075692e696d706c2e737570706f72742e436f6d7072657373656456616c7565000b8b02c748eeab0200035a000a636f6d707265737365644c000b636f6d7072657373696f6e74003d4c636f6d2f657669776172652f736f617075692f696d706c2f737570706f72742f436f6d7072657373656456616c756524436f6d7072657373696f6e3b5b0004646174617400025b427870007e72003b636f6d2e657669776172652e736f617075692e696d706c2e737570706f72742e436f6d7072657373656456616c756524436f6d7072657373696f6e00000000000000001200007872000e6a6176612e6c616e672e456e756d000000000000000012000078707400044e4f4e4570" dataSource="">
    <con:settings/>
    <con:responseContent>{
  "categories" : {
    "href" : "https://api.spotify.com/v1/me/shows?offset=0&amp;limit=20\n",
    "items" : [ {
      "href" : "string",
      "icons" : [ {
        "url" : "https://i.scdn.co/image/ab67616d00001e02ff9ca10b55ce82ae553c8228\n",
        "height" : 300,
        "width" : 300
      } ],
      "id" : "equal",
      "name" : "EQUAL"
    } ],
    "limit" : 20,
    "next" : "https://api.spotify.com/v1/me/shows?offset=1&amp;limit=1",
    "offset" : 0,
    "previous" : "https://api.spotify.com/v1/me/shows?offset=1&amp;limit=1",
    "total" : 4
  }
}</con:responseContent>
  </con:response>
  <con:response name="Response 2" id="55a7f30e-def9-490e-af2d-2a7890b4d511" httpResponseStatus="401" mediaType="application/json" compressedBodyContent="aced00057372002f636f6d2e657669776172652e736f617075692e696d706c2e737570706f72742e436f6d7072657373656456616c7565000b8b02c748eeab0200035a000a636f6d707265737365644c000b636f6d7072657373696f6e74003d4c636f6d2f657669776172652f736f617075692f696d706c2f737570706f72742f436f6d7072657373656456616c756524436f6d7072657373696f6e3b5b0004646174617400025b427870007e72003b636f6d2e657669776172652e736f617075692e696d706c2e737570706f72742e436f6d7072657373656456616c756524436f6d7072657373696f6e00000000000000001200007872000e6a6176612e6c616e672e456e756d000000000000000012000078707400044e4f4e4570" dataSource="">
    <con:settings/>
    <con:responseContent>{
  "error" : {
    "status" : 0,
    "message" : "string"
  }
}</con:responseContent>
  </con:response>
  <con:response name="Response 3" id="095c1981-bbf0-4521-8db8-8445b97cc2a9" httpResponseStatus="403" mediaType="application/json" compressedBodyContent="aced00057372002f636f6d2e657669776172652e736f617075692e696d706c2e737570706f72742e436f6d7072657373656456616c7565000b8b02c748eeab0200035a000a636f6d707265737365644c000b636f6d7072657373696f6e74003d4c636f6d2f657669776172652f736f617075692f696d706c2f737570706f72742f436f6d7072657373656456616c756524436f6d7072657373696f6e3b5b0004646174617400025b427870007e72003b636f6d2e657669776172652e736f617075692e696d706c2e737570706f72742e436f6d7072657373656456616c756524436f6d7072657373696f6e00000000000000001200007872000e6a6176612e6c616e672e456e756d000000000000000012000078707400044e4f4e4570" dataSource="">
    <con:settings/>
    <con:responseContent>{
  "error" : {
    "status" : 0,
    "message" : "string"
  }
}</con:responseContent>
  </con:response>
  <con:response name="Response 4" id="4b5c995c-7d74-497b-b073-a0671d11549f" httpResponseStatus="429" mediaType="application/json" compressedBodyContent="aced00057372002f636f6d2e657669776172652e736f617075692e696d706c2e737570706f72742e436f6d7072657373656456616c7565000b8b02c748eeab0200035a000a636f6d707265737365644c000b636f6d7072657373696f6e74003d4c636f6d2f657669776172652f736f617075692f696d706c2f737570706f72742f436f6d7072657373656456616c756524436f6d7072657373696f6e3b5b0004646174617400025b427870007e72003b636f6d2e657669776172652e736f617075692e696d706c2e737570706f72742e436f6d7072657373656456616c756524436f6d7072657373696f6e00000000000000001200007872000e6a6176612e6c616e672e456e756d000000000000000012000078707400044e4f4e4570" dataSource="">
    <con:settings/>
    <con:responseContent>{
  "error" : {
    "status" : 0,
    "message" : "string"
  }
}</con:responseContent>
  </con:response>
</con:restMockAction>
