<?xml version="1.0" encoding="UTF-8"?>
<con:restMockAction xmlns:con="http://eviware.com/soapui/config" name="/me/playlists" method="GET" resourcePath="/me/playlists" id="c91f6c18-5ec1-4707-b887-7eddf37aeecf">
  <con:settings id="3bbd2af9-1172-4e83-a6df-55bb4054d0ce">
    <con:setting id="c91f6c18-5ec1-4707-b887-7eddf37aeecffileName">%2Fme%2Fplaylists</con:setting>
  </con:settings>
  <con:dispatchStyle>SEQUENCE</con:dispatchStyle>
  <con:dispatchConfig/>
  <con:dispatchXPath/>
  <con:routeScript/>
  <con:requestRouteScript/>
  <con:response name="Response 1" id="3339b3c2-4bf0-470d-b446-6877d0048c0b" httpResponseStatus="200" mediaType="application/json" compressedBodyContent="aced00057372002f636f6d2e657669776172652e736f617075692e696d706c2e737570706f72742e436f6d7072657373656456616c7565000b8b02c748eeab0200035a000a636f6d707265737365644c000b636f6d7072657373696f6e74003d4c636f6d2f657669776172652f736f617075692f696d706c2f737570706f72742f436f6d7072657373656456616c756524436f6d7072657373696f6e3b5b0004646174617400025b427870007e72003b636f6d2e657669776172652e736f617075692e696d706c2e737570706f72742e436f6d7072657373656456616c756524436f6d7072657373696f6e00000000000000001200007872000e6a6176612e6c616e672e456e756d000000000000000012000078707400044e4f4e4570" dataSource="">
    <con:settings/>
    <con:responseContent>{
  "href" : "https://api.spotify.com/v1/me/shows?offset=0&amp;limit=20\n",
  "items" : [ {
    "collaborative" : true,
    "description" : "string",
    "external_urls" : {
      "spotify" : "string"
    },
    "href" : "string",
    "id" : "string",
    "images" : [ {
      "url" : "https://i.scdn.co/image/ab67616d00001e02ff9ca10b55ce82ae553c8228\n",
      "height" : 300,
      "width" : 300
    } ],
    "name" : "string",
    "owner" : {
      "external_urls" : {
        "spotify" : "string"
      },
      "followers" : {
        "href" : "string",
        "total" : 0
      },
      "href" : "string",
      "id" : "string",
      "type" : "user",
      "uri" : "string",
      "display_name" : "string"
    },
    "public" : true,
    "snapshot_id" : "string",
    "tracks" : {
      "href" : "string",
      "total" : 0
    },
    "type" : "string",
    "uri" : "string"
  } ],
  "limit" : 20,
  "next" : "https://api.spotify.com/v1/me/shows?offset=1&amp;limit=1",
  "offset" : 0,
  "previous" : "https://api.spotify.com/v1/me/shows?offset=1&amp;limit=1",
  "total" : 4
}</con:responseContent>
  </con:response>
  <con:response name="Response 2" id="2d364ec0-845a-4b9f-80de-70e1796997a1" httpResponseStatus="401" mediaType="application/json" compressedBodyContent="aced00057372002f636f6d2e657669776172652e736f617075692e696d706c2e737570706f72742e436f6d7072657373656456616c7565000b8b02c748eeab0200035a000a636f6d707265737365644c000b636f6d7072657373696f6e74003d4c636f6d2f657669776172652f736f617075692f696d706c2f737570706f72742f436f6d7072657373656456616c756524436f6d7072657373696f6e3b5b0004646174617400025b427870007e72003b636f6d2e657669776172652e736f617075692e696d706c2e737570706f72742e436f6d7072657373656456616c756524436f6d7072657373696f6e00000000000000001200007872000e6a6176612e6c616e672e456e756d000000000000000012000078707400044e4f4e4570" dataSource="">
    <con:settings/>
    <con:responseContent>{
  "error" : {
    "status" : 0,
    "message" : "string"
  }
}</con:responseContent>
  </con:response>
  <con:response name="Response 3" id="eb877aad-9f10-4f7f-a7b5-2cbd0086f875" httpResponseStatus="403" mediaType="application/json" compressedBodyContent="aced00057372002f636f6d2e657669776172652e736f617075692e696d706c2e737570706f72742e436f6d7072657373656456616c7565000b8b02c748eeab0200035a000a636f6d707265737365644c000b636f6d7072657373696f6e74003d4c636f6d2f657669776172652f736f617075692f696d706c2f737570706f72742f436f6d7072657373656456616c756524436f6d7072657373696f6e3b5b0004646174617400025b427870007e72003b636f6d2e657669776172652e736f617075692e696d706c2e737570706f72742e436f6d7072657373656456616c756524436f6d7072657373696f6e00000000000000001200007872000e6a6176612e6c616e672e456e756d000000000000000012000078707400044e4f4e4570" dataSource="">
    <con:settings/>
    <con:responseContent>{
  "error" : {
    "status" : 0,
    "message" : "string"
  }
}</con:responseContent>
  </con:response>
  <con:response name="Response 4" id="1443d534-61c1-47de-b697-4bdaa5ec5e72" httpResponseStatus="429" mediaType="application/json" compressedBodyContent="aced00057372002f636f6d2e657669776172652e736f617075692e696d706c2e737570706f72742e436f6d7072657373656456616c7565000b8b02c748eeab0200035a000a636f6d707265737365644c000b636f6d7072657373696f6e74003d4c636f6d2f657669776172652f736f617075692f696d706c2f737570706f72742f436f6d7072657373656456616c756524436f6d7072657373696f6e3b5b0004646174617400025b427870007e72003b636f6d2e657669776172652e736f617075692e696d706c2e737570706f72742e436f6d7072657373656456616c756524436f6d7072657373696f6e00000000000000001200007872000e6a6176612e6c616e672e456e756d000000000000000012000078707400044e4f4e4570" dataSource="">
    <con:settings/>
    <con:responseContent>{
  "error" : {
    "status" : 0,
    "message" : "string"
  }
}</con:responseContent>
  </con:response>
</con:restMockAction>
