<?xml version="1.0" encoding="UTF-8"?>
<con:restMockAction xmlns:con="http://eviware.com/soapui/config" name="/me/episodes" method="GET" resourcePath="/me/episodes" id="0d7b1d1e-68c4-43e3-ac30-a02301b3bbac">
  <con:settings id="2fab4dc1-6559-4a6d-a4d1-7a8217864680">
    <con:setting id="0d7b1d1e-68c4-43e3-ac30-a02301b3bbacfileName">%2Fme%2Fepisodes</con:setting>
  </con:settings>
  <con:dispatchStyle>SEQUENCE</con:dispatchStyle>
  <con:dispatchConfig/>
  <con:dispatchXPath/>
  <con:routeScript/>
  <con:response name="Response 1" id="99ad858b-0e9c-4f5b-a61d-72b5068e593f" httpResponseStatus="200" mediaType="application/json" compressedBodyContent="aced00057372002f636f6d2e657669776172652e736f617075692e696d706c2e737570706f72742e436f6d7072657373656456616c7565000b8b02c748eeab0200035a000a636f6d707265737365644c000b636f6d7072657373696f6e74003d4c636f6d2f657669776172652f736f617075692f696d706c2f737570706f72742f436f6d7072657373656456616c756524436f6d7072657373696f6e3b5b0004646174617400025b427870007e72003b636f6d2e657669776172652e736f617075692e696d706c2e737570706f72742e436f6d7072657373656456616c756524436f6d7072657373696f6e00000000000000001200007872000e6a6176612e6c616e672e456e756d000000000000000012000078707400044e4f4e4570" dataSource="">
    <con:settings/>
    <con:responseContent>{
  "href" : "https://api.spotify.com/v1/me/shows?offset=0&amp;limit=20\n",
  "items" : [ {
    "added_at" : "2015-07-20T15:49:04-07:00",
    "episode" : {
      "audio_preview_url" : "https://p.scdn.co/mp3-preview/2f37da1d4221f40b9d1a98cd191f4d6f1646ad17",
      "description" : "A Spotify podcast sharing fresh insights on important topics of the moment—in a way only Spotify can. You’ll hear from experts in the music, podcast and tech industries as we discover and uncover stories about our work and the world around us.\n",
      "html_description" : "&lt;p>A Spotify podcast sharing fresh insights on important topics of the moment—in a way only Spotify can. You’ll hear from experts in the music, podcast and tech industries as we discover and uncover stories about our work and the world around us.&lt;/p>\n",
      "duration_ms" : 1686230,
      "explicit" : true,
      "external_urls" : {
        "spotify" : "string"
      },
      "href" : "https://api.spotify.com/v1/episodes/5Xt5DXGzch68nYYamXrNxZ",
      "id" : "5Xt5DXGzch68nYYamXrNxZ",
      "images" : [ {
        "url" : "https://i.scdn.co/image/ab67616d00001e02ff9ca10b55ce82ae553c8228\n",
        "height" : 300,
        "width" : 300
      } ],
      "is_externally_hosted" : true,
      "is_playable" : true,
      "language" : "en",
      "languages" : [ "fr", "en" ],
      "name" : "Starting Your Own Podcast: Tips, Tricks, and Advice From Anchor Creators\n",
      "release_date" : "1981-12-15",
      "release_date_precision" : "day",
      "resume_point" : {
        "fully_played" : true,
        "resume_position_ms" : 0
      },
      "type" : "episode",
      "uri" : "spotify:episode:0zLhl3WsOCQHbe1BPTiHgr",
      "restrictions" : {
        "reason" : "string"
      },
      "show" : {
        "available_markets" : [ "string" ],
        "copyrights" : [ {
          "text" : "string",
          "type" : "string"
        } ],
        "description" : "string",
        "html_description" : "string",
        "explicit" : true,
        "external_urls" : {
          "spotify" : "string"
        },
        "href" : "string",
        "id" : "string",
        "images" : [ {
          "url" : "https://i.scdn.co/image/ab67616d00001e02ff9ca10b55ce82ae553c8228\n",
          "height" : 300,
          "width" : 300
        } ],
        "is_externally_hosted" : true,
        "languages" : [ "string" ],
        "media_type" : "string",
        "name" : "string",
        "publisher" : "string",
        "type" : "show",
        "uri" : "string"
      }
    }
  } ],
  "limit" : 20,
  "next" : "https://api.spotify.com/v1/me/shows?offset=1&amp;limit=1",
  "offset" : 0,
  "previous" : "https://api.spotify.com/v1/me/shows?offset=1&amp;limit=1",
  "total" : 4
}</con:responseContent>
  </con:response>
  <con:response name="Response 2" id="e8ae0d73-5d8a-4cfa-93de-7729e27e0ed3" httpResponseStatus="401" mediaType="application/json" compressedBodyContent="aced00057372002f636f6d2e657669776172652e736f617075692e696d706c2e737570706f72742e436f6d7072657373656456616c7565000b8b02c748eeab0200035a000a636f6d707265737365644c000b636f6d7072657373696f6e74003d4c636f6d2f657669776172652f736f617075692f696d706c2f737570706f72742f436f6d7072657373656456616c756524436f6d7072657373696f6e3b5b0004646174617400025b427870007e72003b636f6d2e657669776172652e736f617075692e696d706c2e737570706f72742e436f6d7072657373656456616c756524436f6d7072657373696f6e00000000000000001200007872000e6a6176612e6c616e672e456e756d000000000000000012000078707400044e4f4e4570" dataSource="">
    <con:settings/>
    <con:responseContent>{
  "error" : {
    "status" : 0,
    "message" : "string"
  }
}</con:responseContent>
  </con:response>
  <con:response name="Response 3" id="1deb6a06-2209-4fa9-b24d-d0e573f6e83d" httpResponseStatus="403" mediaType="application/json" compressedBodyContent="aced00057372002f636f6d2e657669776172652e736f617075692e696d706c2e737570706f72742e436f6d7072657373656456616c7565000b8b02c748eeab0200035a000a636f6d707265737365644c000b636f6d7072657373696f6e74003d4c636f6d2f657669776172652f736f617075692f696d706c2f737570706f72742f436f6d7072657373656456616c756524436f6d7072657373696f6e3b5b0004646174617400025b427870007e72003b636f6d2e657669776172652e736f617075692e696d706c2e737570706f72742e436f6d7072657373656456616c756524436f6d7072657373696f6e00000000000000001200007872000e6a6176612e6c616e672e456e756d000000000000000012000078707400044e4f4e4570" dataSource="">
    <con:settings/>
    <con:responseContent>{
  "error" : {
    "status" : 0,
    "message" : "string"
  }
}</con:responseContent>
  </con:response>
  <con:response name="Response 4" id="3cdf5e6f-c234-4ba5-931d-983814c9d604" httpResponseStatus="429" mediaType="application/json" compressedBodyContent="aced00057372002f636f6d2e657669776172652e736f617075692e696d706c2e737570706f72742e436f6d7072657373656456616c7565000b8b02c748eeab0200035a000a636f6d707265737365644c000b636f6d7072657373696f6e74003d4c636f6d2f657669776172652f736f617075692f696d706c2f737570706f72742f436f6d7072657373656456616c756524436f6d7072657373696f6e3b5b0004646174617400025b427870007e72003b636f6d2e657669776172652e736f617075692e696d706c2e737570706f72742e436f6d7072657373656456616c756524436f6d7072657373696f6e00000000000000001200007872000e6a6176612e6c616e672e456e756d000000000000000012000078707400044e4f4e4570" dataSource="">
    <con:settings/>
    <con:responseContent>{
  "error" : {
    "status" : 0,
    "message" : "string"
  }
}</con:responseContent>
  </con:response>
</con:restMockAction>
