<?xml version="1.0" encoding="UTF-8"?>
<con:restMockAction xmlns:con="http://eviware.com/soapui/config" name="/shows/{id}/episodes" method="GET" resourcePath="/shows/{id}/episodes" id="780d15fc-e334-4d33-a21f-4d4c13f56c6d">
  <con:settings id="c21a04c5-19b0-4a34-ad52-243c1b3c62c1">
    <con:setting id="780d15fc-e334-4d33-a21f-4d4c13f56c6dfileName">%2Fshows%2F%7Bid%7D%2Fepisodes</con:setting>
  </con:settings>
  <con:dispatchStyle>SEQUENCE</con:dispatchStyle>
  <con:dispatchConfig/>
  <con:dispatchXPath/>
  <con:routeScript/>
  <con:requestRouteScript/>
  <con:response name="Response 1" id="88ee0e3d-84e5-4552-aa32-98e115ebff02" httpResponseStatus="200" mediaType="application/json" compressedBodyContent="aced00057372002f636f6d2e657669776172652e736f617075692e696d706c2e737570706f72742e436f6d7072657373656456616c7565000b8b02c748eeab0200035a000a636f6d707265737365644c000b636f6d7072657373696f6e74003d4c636f6d2f657669776172652f736f617075692f696d706c2f737570706f72742f436f6d7072657373656456616c756524436f6d7072657373696f6e3b5b0004646174617400025b427870007e72003b636f6d2e657669776172652e736f617075692e696d706c2e737570706f72742e436f6d7072657373656456616c756524436f6d7072657373696f6e00000000000000001200007872000e6a6176612e6c616e672e456e756d000000000000000012000078707400044e4f4e4570" dataSource="">
    <con:settings/>
    <con:responseContent>{
  "href" : "https://api.spotify.com/v1/me/shows?offset=0&amp;limit=20\n",
  "items" : [ {
    "audio_preview_url" : "https://p.scdn.co/mp3-preview/2f37da1d4221f40b9d1a98cd191f4d6f1646ad17",
    "description" : "A Spotify podcast sharing fresh insights on important topics of the moment—in a way only Spotify can. You’ll hear from experts in the music, podcast and tech industries as we discover and uncover stories about our work and the world around us.\n",
    "html_description" : "&lt;p>A Spotify podcast sharing fresh insights on important topics of the moment—in a way only Spotify can. You’ll hear from experts in the music, podcast and tech industries as we discover and uncover stories about our work and the world around us.&lt;/p>\n",
    "duration_ms" : 1686230,
    "explicit" : true,
    "external_urls" : {
      "spotify" : "string"
    },
    "href" : "https://api.spotify.com/v1/episodes/5Xt5DXGzch68nYYamXrNxZ",
    "id" : "5Xt5DXGzch68nYYamXrNxZ",
    "images" : [ {
      "url" : "https://i.scdn.co/image/ab67616d00001e02ff9ca10b55ce82ae553c8228\n",
      "height" : 300,
      "width" : 300
    } ],
    "is_externally_hosted" : true,
    "is_playable" : true,
    "language" : "en",
    "languages" : [ "fr", "en" ],
    "name" : "Starting Your Own Podcast: Tips, Tricks, and Advice From Anchor Creators\n",
    "release_date" : "1981-12-15",
    "release_date_precision" : "day",
    "resume_point" : {
      "fully_played" : true,
      "resume_position_ms" : 0
    },
    "type" : "episode",
    "uri" : "spotify:episode:0zLhl3WsOCQHbe1BPTiHgr",
    "restrictions" : {
      "reason" : "string"
    }
  } ],
  "limit" : 20,
  "next" : "https://api.spotify.com/v1/me/shows?offset=1&amp;limit=1",
  "offset" : 0,
  "previous" : "https://api.spotify.com/v1/me/shows?offset=1&amp;limit=1",
  "total" : 4
}</con:responseContent>
  </con:response>
  <con:response name="Response 2" id="d220d2b0-1897-4d34-9211-6ab6b9a573f9" httpResponseStatus="401" mediaType="application/json" compressedBodyContent="aced00057372002f636f6d2e657669776172652e736f617075692e696d706c2e737570706f72742e436f6d7072657373656456616c7565000b8b02c748eeab0200035a000a636f6d707265737365644c000b636f6d7072657373696f6e74003d4c636f6d2f657669776172652f736f617075692f696d706c2f737570706f72742f436f6d7072657373656456616c756524436f6d7072657373696f6e3b5b0004646174617400025b427870007e72003b636f6d2e657669776172652e736f617075692e696d706c2e737570706f72742e436f6d7072657373656456616c756524436f6d7072657373696f6e00000000000000001200007872000e6a6176612e6c616e672e456e756d000000000000000012000078707400044e4f4e4570" dataSource="">
    <con:settings/>
    <con:responseContent>{
  "error" : {
    "status" : 0,
    "message" : "string"
  }
}</con:responseContent>
  </con:response>
  <con:response name="Response 3" id="9afeff31-7afc-4e83-8eb2-7ae139a4429c" httpResponseStatus="403" mediaType="application/json" compressedBodyContent="aced00057372002f636f6d2e657669776172652e736f617075692e696d706c2e737570706f72742e436f6d7072657373656456616c7565000b8b02c748eeab0200035a000a636f6d707265737365644c000b636f6d7072657373696f6e74003d4c636f6d2f657669776172652f736f617075692f696d706c2f737570706f72742f436f6d7072657373656456616c756524436f6d7072657373696f6e3b5b0004646174617400025b427870007e72003b636f6d2e657669776172652e736f617075692e696d706c2e737570706f72742e436f6d7072657373656456616c756524436f6d7072657373696f6e00000000000000001200007872000e6a6176612e6c616e672e456e756d000000000000000012000078707400044e4f4e4570" dataSource="">
    <con:settings/>
    <con:responseContent>{
  "error" : {
    "status" : 0,
    "message" : "string"
  }
}</con:responseContent>
  </con:response>
  <con:response name="Response 4" id="557a6aaa-13f9-4d2e-bf81-ce4251def983" httpResponseStatus="429" mediaType="application/json" compressedBodyContent="aced00057372002f636f6d2e657669776172652e736f617075692e696d706c2e737570706f72742e436f6d7072657373656456616c7565000b8b02c748eeab0200035a000a636f6d707265737365644c000b636f6d7072657373696f6e74003d4c636f6d2f657669776172652f736f617075692f696d706c2f737570706f72742f436f6d7072657373656456616c756524436f6d7072657373696f6e3b5b0004646174617400025b427870007e72003b636f6d2e657669776172652e736f617075692e696d706c2e737570706f72742e436f6d7072657373656456616c756524436f6d7072657373696f6e00000000000000001200007872000e6a6176612e6c616e672e456e756d000000000000000012000078707400044e4f4e4570" dataSource="">
    <con:settings/>
    <con:responseContent>{
  "error" : {
    "status" : 0,
    "message" : "string"
  }
}</con:responseContent>
  </con:response>
</con:restMockAction>
